homework/ex2/simulation/qsim/Multiplier.msim.vcd
$comment
	File created using the following command:
		vcd file Multiplier.msim.vcd -direction
$end
$date
	Sun Nov 03 11:38:59 2019
$end
$version
	ModelSim Version 10.5b
$end
$timescale
	1ps
$end

$scope module Multiplier_vlg_vec_tst $end
$var reg 4 ! a [4:1] $end
$var reg 4 " b [4:1] $end
$var wire 1 # result [8] $end
$var wire 1 $ result [7] $end
$var wire 1 % result [6] $end
$var wire 1 & result [5] $end
$var wire 1 ' result [4] $end
$var wire 1 ( result [3] $end
$var wire 1 ) result [2] $end
$var wire 1 * result [1] $end

$scope module i1 $end
$var wire 1 + gnd $end
$var wire 1 , vcc $end
$var wire 1 - unknown $end
$var tri1 1 . devclrn $end
$var tri1 1 / devpor $end
$var tri1 1 0 devoe $end
$var wire 1 1 result[1]~output_o $end
$var wire 1 2 result[2]~output_o $end
$var wire 1 3 result[3]~output_o $end
$var wire 1 4 result[4]~output_o $end
$var wire 1 5 result[5]~output_o $end
$var wire 1 6 result[6]~output_o $end
$var wire 1 7 result[7]~output_o $end
$var wire 1 8 result[8]~output_o $end
$var wire 1 9 b[1]~input_o $end
$var wire 1 : a[1]~input_o $end
$var wire 1 ; result~0_combout $end
$var wire 1 < b[2]~input_o $end
$var wire 1 = a[2]~input_o $end
$var wire 1 > result~1_combout $end
$var wire 1 ? Add0~6_combout $end
$var wire 1 @ Add0~18_combout $end
$var wire 1 A b[3]~input_o $end
$var wire 1 B a[3]~input_o $end
$var wire 1 C result~2_combout $end
$var wire 1 D Add0~7 $end
$var wire 1 E Add0~8_combout $end
$var wire 1 F Add0~19_combout $end
$var wire 1 G Add1~4_combout $end
$var wire 1 H Add1~6_combout $end
$var wire 1 I b[4]~input_o $end
$var wire 1 J a[4]~input_o $end
$var wire 1 K result~3_combout $end
$var wire 1 L Add0~9 $end
$var wire 1 M Add0~10_combout $end
$var wire 1 N Add0~20_combout $end
$var wire 1 O Add1~5 $end
$var wire 1 P Add1~7_combout $end
$var wire 1 Q Add1~9_combout $end
$var wire 1 R Add2~2_combout $end
$var wire 1 S Add2~4_combout $end
$var wire 1 T Add0~11 $end
$var wire 1 U Add0~12_combout $end
$var wire 1 V Add0~14_combout $end
$var wire 1 W Add1~8 $end
$var wire 1 X Add1~10_combout $end
$var wire 1 Y Add1~17_combout $end
$var wire 1 Z Add2~3 $end
$var wire 1 [ Add2~5_combout $end
$var wire 1 \ Add2~7_combout $end
$var wire 1 ] Add0~13 $end
$var wire 1 ^ Add0~15_combout $end
$var wire 1 _ Add0~17_combout $end
$var wire 1 ` Add1~11 $end
$var wire 1 a Add1~12_combout $end
$var wire 1 b Add1~18_combout $end
$var wire 1 c Add2~6 $end
$var wire 1 d Add2~8_combout $end
$var wire 1 e Add2~10_combout $end
$var wire 1 f Add1~13 $end
$var wire 1 g Add1~14_combout $end
$var wire 1 h Add1~16_combout $end
$var wire 1 i Add2~9 $end
$var wire 1 j Add2~11_combout $end
$var wire 1 k Add2~16_combout $end
$var wire 1 l Add2~12 $end
$var wire 1 m Add2~13_combout $end
$var wire 1 n Add2~15_combout $end
$upscope $end
$upscope $end
$enddefinitions $end
#0
$dumpvars
b101 !
b111 "
1*
1)
0(
0'
0&
1%
0$
0#
0+
1,
x-
1.
1/
10
11
12
03
04
05
16
07
08
19
1:
1;
1<
0=
0>
1?
1@
1A
1B
1C
0D
1E
1F
0G
0H
0I
0J
0K
1L
1M
1N
1O
0P
0Q
1R
0S
0T
0U
0V
0W
0X
0Y
0Z
0[
0\
1]
0^
0_
1`
1a
1b
1c
0d
1e
1f
0g
0h
1i
1j
0k
1l
0m
0n
$end
#40000
b1101 !
b1111 !
b1110 !
b1111 "
b1011 "
b1001 "
b1000 "
09
0<
0A
1I
0:
1=
1J
0N
0F
0C
0b
1Q
0R
0O
1G
0?
1[
1P
0L
0E
0l
0j
0f
0a
1U
0@
0;
1k
1H
0e
1S
14
06
13
17
01
02
0Q
1W
0G
1L
1E
0i
1d
1R
1T
0M
1m
1g
0)
0*
1$
1(
0%
1'
0H
0S
1\
0k
07
15
04
03
0R
0`
1X
0T
1M
1l
1j
0]
0U
0(
0'
1&
0$
1S
1e
1n
18
16
14
1f
1a
1]
1U
0m
1^
1'
1%
1#
0S
1k
17
04
0g
0^
0'
1$
0n
08
0#
#80000
b1010 !
b1011 !
b0 "
b100 "
b101 "
19
1A
0I
1:
0B
1N
1K
1>
1b
1Y
1Q
1R
1G
1?
0d
0X
0M
1@
1;
0k
0e
0\
05
06
07
11
12
0W
0P
1M
1D
0?
1d
0c
0[
1Z
0R
0Y
1)
1*
0$
0%
0&
1e
1\
1S
1H
13
14
15
16
1X
0Q
0L
0E
1i
0d
1%
1&
1'
1(
0\
05
1Y
0Z
1R
1T
0M
0l
0j
0&
0S
04
0]
0U
1m
0'
1\
15
1^
1&
#120000
b1001 !
b1101 "
1I
0=
1c
1[
1W
1P
1L
1E
0>
1n
0e
0\
1S
0@
02
14
05
06
18
0i
1d
0X
1Q
0T
1M
0D
1?
1#
0%
0&
1'
0)
1\
15
1l
1j
0Y
1Z
0R
1]
1U
0E
1&
1e
16
0m
0^
1%
1k
0S
04
17
1$
0'
0n
08
0#
#160000
b1 !
b0 !
b1001 "
b10 !
b1 "
0A
0I
0:
1=
0J
0b
0Z
1R
0G
0?
0c
0[
0W
0P
1E
1>
0j
0a
0U
0N
0K
0k
0H
0\
1S
0;
1@
12
01
14
05
03
07
1c
1[
1X
0Q
1?
1W
1P
0M
0$
0(
0&
1'
0*
1)
0e
06
0d
0R
0X
0%
0S
04
0'
#200000
b0 "
b1010 !
b100 "
b1000 !
b1100 "
0=
1J
09
1A
1I
0[
0P
0E
0>
1j
1a
1U
1Q
0@
1\
15
02
0Q
0?
1b
1R
0)
1&
0\
1k
17
05
0R
1d
0&
1$
1S
14
1'
0S
1e
16
04
0'
1%
#240000
b1100 !
b1101 !
b1101 "
b101 !
b111 !
b101 "
19
0I
1:
1=
1B
0J
1F
1C
1>
1R
1G
1?
1[
1P
1E
1i
0d
1X
1M
0j
0a
0U
1@
1;
0k
07
11
12
1O
0G
0L
0E
1D
0?
1Q
1j
1Y
0b
1)
1*
0$
1H
13
0W
0P
1T
0M
1E
1Z
0R
0c
0[
0i
1d
1(
0H
1S
1\
0e
06
15
14
03
1`
0X
0Q
1U
1[
1i
0d
0j
0(
1'
1&
0%
1a
0Y
0Z
1R
1j
0S
04
1b
1c
0'
0\
05
0&
1e
16
1%
#280000
b1111 !
b1101 "
1I
1J
0l
0j
0f
0a
0]
0U
1N
1K
1k
0e
1\
1S
14
15
06
17
1m
1g
0b
1^
1P
1M
1$
0%
1&
1'
0k
07
1h
0i
1d
1Q
0$
1n
18
1Z
0R
1#
1e
16
0c
0[
1%
0S
04
1i
0d
0'
0\
05
1j
0&
0e
06
0%
1k
17
1$
#320000
b1001 "
b111 !
0J
0A
0j
1f
1a
1]
1U
0N
0K
0h
1H
13
0g
0^
0Q
0P
0M
1l
1j
1(
0k
07
0Z
1R
0m
0$
1k
17
1c
1[
1$
1S
0n
08
14
0i
1d
1'
0#
1\
15
0j
1&
1e
16
1%
0k
07
0$
#360000
b1000 "
b1100 "
09
1A
0F
0C
0>
1b
0@
0;
0H
03
01
02
0O
1G
0E
0D
1?
1i
0d
0)
0*
0(
1W
1P
1L
1E
1j
1H
0e
06
13
0`
1X
1Q
0T
1M
1(
0%
1k
17
0a
1Y
1Z
0R
0U
1$
0b
0c
0S
04
0'
#400000
b1110 "
b101 !
b1101 !
b1010 "
0=
1J
1<
0A
0[
0P
0E
0l
0j
1a
1U
1N
0Y
1F
0Q
1@
0H
03
12
1Q
0F
1m
1Y
1V
1P
1c
1[
1O
0G
0Z
1R
1)
0(
0\
0k
1H
13
07
05
1Z
0R
0O
1G
1`
0X
0i
1d
0W
0P
0&
0$
1(
1S
0H
1n
1\
15
18
03
14
0c
0[
1W
1P
0f
0a
1l
1j
1X
1'
0(
1#
1&
0S
1e
16
04
1i
0d
0X
1g
0m
0'
1%
0\
1k
17
05
0l
0j
0&
1$
0e
0n
08
06
1m
0%
0#
0k
07
0$
1n
18
1#
#440000
b10 "
b1111 !
b110 "
1=
1A
0I
1[
0W
0P
1E
1h
0Y
1k
1H
0n
1\
1S
14
15
08
13
17
1X
0Q
1F
1j
0[
1$
1(
0#
1&
1'
0\
05
1Y
0Z
1R
1O
0G
0&
0S
04
1P
0'
1\
0H
03
15
1Q
1&
0(
1Z
0R
1S
14
1[
1'
#480000
b1110 !
b111 "
b101 "
b1101 "
b1100 !
19
0<
1I
0:
0=
1K
1C
0V
0Z
1R
0O
1G
0?
0[
0P
0E
0@
1n
0S
04
18
02
1T
0M
1E
0X
1c
1[
1W
1P
0Q
0)
1#
0'
1S
1H
0\
05
13
14
0]
0U
0Y
0i
1d
0`
1X
1Q
0R
1'
1(
0&
1\
15
1^
1Y
0[
0j
1f
1a
1R
1&
1e
0S
04
16
1b
1[
0g
1%
0'
0\
0k
1S
14
07
05
1i
0d
0h
0&
0$
1'
1\
15
1&
0e
06
0%
#520000
b1000 !
b1001 "
b1000 "
b0 "
09
0A
0I
0B
0N
0K
0F
0C
0b
0Y
0i
1d
0X
0T
1M
0n
1e
16
08
0Q
0P
0M
0G
0E
0d
0[
1l
1j
1]
1U
0#
1%
0H
0e
0\
05
06
03
0R
0m
0^
0(
0%
0&
0S
04
0'
#560000
b1001 !
b10 "
b1101 !
b11 "
19
1<
1:
1B
1K
1C
1Y
1V
1R
1G
1?
1d
1X
1M
1;
11
1T
0M
1E
1[
1`
0X
1N
1*
1\
1@
12
15
0]
0U
0N
1F
0f
0a
1Q
1P
1&
1)
1^
0Y
0V
0Q
0P
1O
0G
1g
1Z
0R
1H
1S
14
13
1b
1_
0`
1X
0Z
1R
1P
1(
1'
0\
0S
04
05
1i
0d
0[
0&
0'
1e
16
0l
0j
1%
1m
#600000
b1111 !
b1 "
b0 "
09
0<
1=
0K
0F
0C
0b
0_
1[
0W
0P
0L
0E
0@
0;
01
02
0O
1G
1L
1E
0i
1d
1f
1a
1`
0X
0)
0*
0H
0e
06
03
1W
1P
0T
1M
1l
1j
0g
0f
0a
0(
0%
0`
1X
1]
1U
0m
1g
1f
1a
0^
0g
#640000
b111 !
b100 "
b1100 "
b1110 "
1<
1A
1I
0J
1b
1Y
1V
1N
1F
1Q
0j
0a
0U
1@
1k
1H
1e
1\
1S
14
15
16
13
17
12
1i
0d
0c
0[
1`
0X
0W
0P
1O
0G
1Z
0R
0b
0V
1)
1$
1(
1%
1&
1'
0k
07
1j
1a
0Y
0Q
1P
1[
0$
0e
0\
0H
0S
04
03
05
06
1b
0[
0Z
1R
1Q
0%
0&
0(
0'
1k
1\
15
17
1d
1c
1[
1Z
0R
1$
1&
0\
1S
14
05
0d
0c
0[
0&
1'
1e
1\
0S
04
15
16
1d
1%
1&
0'
0e
0\
05
06
0%
0&
1e
16
1%
#680000
b1111 "
19
1C
1>
1;
11
0L
0E
1D
0?
1*
1T
0M
0F
1E
0@
02
1U
0N
0O
1G
1F
0)
1V
1W
1O
0G
1H
13
0W
0P
1(
0H
03
1X
0Q
0(
1Y
0Z
1R
1S
14
1'
#720000
b11 !
b111 "
b101 "
b100 "
09
0<
0I
0B
0F
0C
0>
0V
0d
0X
0T
1M
0;
0k
1\
0S
04
15
07
01
0O
1G
0E
0D
1?
0`
1X
0Y
0U
0*
0$
1&
0'
1W
1P
1L
1E
0a
1Y
1c
1[
1H
0\
05
13
0X
1Q
0M
0b
0c
0[
0i
1d
1(
0&
1\
15
0Y
1Z
0R
0j
1&
1S
0e
06
14
1'
0%
0\
05
0&
#760000
b10 !
b0 !
b0 "
0A
0:
0=
0Q
0Z
1R
0G
0?
1c
1[
0P
0E
0H
03
0R
0[
0d
0(
0S
04
0'
#800000
b1000 "
b1001 "
19
1I
#840000
b1011 "
b10 !
b1111 "
b111 "
b110 "
1=
09
1<
1A
0I
1[
1P
1E
1Q
1F
1R
1G
1S
14
1'
1H
13
1(
#880000
b1010 !
b1110 !
b100 "
b1100 !
b0 "
b1 "
19
0<
0A
0=
1B
1J
1N
1K
1C
0Q
0[
0P
0E
1d
1X
1M
1j
1a
1U
1Q
1P
1T
0M
1E
0R
0S
04
1R
0]
0U
0'
1S
14
1^
1'
#920000
b1001 "
b1000 !
b1011 "
b1010 !
1=
0B
1<
1I
1[
0W
0P
0L
0E
1>
0d
0X
0T
1M
0C
1b
1_
0N
1k
1e
16
17
1X
0Q
1T
0M
0F
1?
1]
1U
1N
1L
1E
1d
0f
0a
1W
1P
1$
1%
1\
0e
06
15
1Y
0R
0]
0U
0N
0G
0^
1V
1Q
0W
0P
0T
1M
1F
1g
0X
1&
0%
0H
1@
1e
16
12
03
0c
0[
1^
0Y
0V
0Q
1W
1P
0b
0_
1`
1R
1]
1U
1N
1G
0(
1)
1%
0S
1H
13
04
1b
1_
1c
1[
0`
0R
1Q
0^
1Y
1V
0W
0P
0'
1(
0\
1S
14
05
1R
0b
0_
0c
0[
1`
0&
1'
1\
0S
04
15
1&
0'
1S
0\
05
14
1'
0&
#960000
b10 !
b1111 "
b110 !
b1101 "
b100 !
0<
1A
0=
1B
0J
0Y
0V
0N
1h
0Q
1c
1[
1W
1P
0E
0>
1i
0d
1X
1T
0M
1C
0j
1f
1a
0U
0K
0@
02
0[
0`
1Q
0P
0l
0R
0i
1d
0?
1Y
1U
1E
0g
1b
0T
1M
0)
1\
0e
0k
07
06
15
0a
1R
0Q
1m
1l
1j
1[
0h
1i
0d
0U
1&
0%
0$
0\
0S
1e
16
04
05
0b
0R
0m
0&
0'
1%
1S
1n
1k
1\
0e
06
15
17
18
14
0i
1d
1'
1#
1$
1&
0%
0S
0n
08
04
0j
0'
0#
1e
16
1%
0k
07
0$
