homework/ex3/simulation/qsim/freq_div.msim.vcd
$comment
	File created using the following command:
		vcd file freq_div.msim.vcd -direction
$end
$date
	Sat Nov 09 18:38:17 2019
$end
$version
	ModelSim Version 10.5b
$end
$timescale
	1ps
$end

$scope module freq_div_vlg_vec_tst $end
$var reg 1 ! clk $end
$var reg 17 " duty_param [16:0] $end
$var reg 17 # period_param [16:0] $end
$var reg 1 $ reset_n $end
$var wire 1 % div_out $end

$scope module i1 $end
$var wire 1 & gnd $end
$var wire 1 ' vcc $end
$var wire 1 ( unknown $end
$var tri1 1 ) devclrn $end
$var tri1 1 * devpor $end
$var tri1 1 + devoe $end
$var wire 1 , ~QUARTUS_CREATED_GND~I_combout $end
$var wire 1 - clk~input_o $end
$var wire 1 . clk~inputCLKENA0_outclk $end
$var wire 1 / period_param[16]~input_o $end
$var wire 1 0 period_param[15]~input_o $end
$var wire 1 1 period_param[14]~input_o $end
$var wire 1 2 period_param[13]~input_o $end
$var wire 1 3 period_param[12]~input_o $end
$var wire 1 4 period_param[11]~input_o $end
$var wire 1 5 period_param[10]~input_o $end
$var wire 1 6 period_param[9]~input_o $end
$var wire 1 7 period_param[8]~input_o $end
$var wire 1 8 period_param[7]~input_o $end
$var wire 1 9 period_param[6]~input_o $end
$var wire 1 : period_param[5]~input_o $end
$var wire 1 ; period_param[4]~input_o $end
$var wire 1 < period_param[3]~input_o $end
$var wire 1 = period_param[2]~input_o $end
$var wire 1 > period_param[1]~input_o $end
$var wire 1 ? period_param[0]~input_o $end
$var wire 1 @ Add1~34 $end
$var wire 1 A Add1~38 $end
$var wire 1 B Add1~42 $end
$var wire 1 C Add1~10 $end
$var wire 1 D Add1~14 $end
$var wire 1 E Add1~18 $end
$var wire 1 F Add1~62 $end
$var wire 1 G Add1~66 $end
$var wire 1 H Add1~70 $end
$var wire 1 I Add1~54 $end
$var wire 1 J Add1~58 $end
$var wire 1 K Add1~22 $end
$var wire 1 L Add1~26 $end
$var wire 1 M Add1~46 $end
$var wire 1 N Add1~2 $end
$var wire 1 O Add1~6 $end
$var wire 1 P Add1~49_sumout $end
$var wire 1 Q Add1~45_sumout $end
$var wire 1 R Add2~33_sumout $end
$var wire 1 S reset_n~input_o $end
$var wire 1 T duty_param[16]~input_o $end
$var wire 1 U duty_param[15]~input_o $end
$var wire 1 V duty_param[14]~input_o $end
$var wire 1 W duty_param[13]~input_o $end
$var wire 1 X duty_param[12]~input_o $end
$var wire 1 Y duty_param[11]~input_o $end
$var wire 1 Z duty_param[10]~input_o $end
$var wire 1 [ duty_param[9]~input_o $end
$var wire 1 \ duty_param[8]~input_o $end
$var wire 1 ] duty_param[7]~input_o $end
$var wire 1 ^ duty_param[6]~input_o $end
$var wire 1 _ duty_param[5]~input_o $end
$var wire 1 ` duty_param[4]~input_o $end
$var wire 1 a duty_param[3]~input_o $end
$var wire 1 b duty_param[2]~input_o $end
$var wire 1 c duty_param[1]~input_o $end
$var wire 1 d duty_param[0]~input_o $end
$var wire 1 e Add0~38 $end
$var wire 1 f Add0~42 $end
$var wire 1 g Add0~46 $end
$var wire 1 h Add0~10 $end
$var wire 1 i Add0~14 $end
$var wire 1 j Add0~18 $end
$var wire 1 k Add0~62 $end
$var wire 1 l Add0~66 $end
$var wire 1 m Add0~70 $end
$var wire 1 n Add0~50 $end
$var wire 1 o Add0~54 $end
$var wire 1 p Add0~30 $end
$var wire 1 q Add0~34 $end
$var wire 1 r Add0~58 $end
$var wire 1 s Add0~2 $end
$var wire 1 t Add0~6 $end
$var wire 1 u Add0~21_sumout $end
$var wire 1 v Add2~54 $end
$var wire 1 w Add2~1_sumout $end
$var wire 1 x Add2~2 $end
$var wire 1 y Add2~5_sumout $end
$var wire 1 z Add2~6 $end
$var wire 1 { Add2~21_sumout $end
$var wire 1 | Add0~57_sumout $end
$var wire 1 } Add0~53_sumout $end
$var wire 1 ~ Add0~49_sumout $end
$var wire 1 !! Equal0~8_combout $end
$var wire 1 "! Add0~69_sumout $end
$var wire 1 #! Add0~61_sumout $end
$var wire 1 $! Add0~65_sumout $end
$var wire 1 %! Equal0~5_combout $end
$var wire 1 &! Equal0~9_combout $end
$var wire 1 '! Add1~5_sumout $end
$var wire 1 (! Add1~1_sumout $end
$var wire 1 )! Add1~13_sumout $end
$var wire 1 *! Add1~9_sumout $end
$var wire 1 +! Add1~17_sumout $end
$var wire 1 ,! Equal1~0_combout $end
$var wire 1 -! Equal1~1_combout $end
$var wire 1 .! Add0~1_sumout $end
$var wire 1 /! Add0~5_sumout $end
$var wire 1 0! Add0~17_sumout $end
$var wire 1 1! Add0~13_sumout $end
$var wire 1 2! Add0~9_sumout $end
$var wire 1 3! Equal0~0_combout $end
$var wire 1 4! Equal0~1_combout $end
$var wire 1 5! Add1~21_sumout $end
$var wire 1 6! Add1~25_sumout $end
$var wire 1 7! Add1~50 $end
$var wire 1 8! Add1~29_sumout $end
$var wire 1 9! Add1~37_sumout $end
$var wire 1 :! Add1~41_sumout $end
$var wire 1 ;! Add1~33_sumout $end
$var wire 1 <! Equal1~2_combout $end
$var wire 1 =! Equal1~3_combout $end
$var wire 1 >! Add0~22 $end
$var wire 1 ?! Add0~25_sumout $end
$var wire 1 @! Add0~33_sumout $end
$var wire 1 A! Add0~29_sumout $end
$var wire 1 B! Add0~37_sumout $end
$var wire 1 C! Add0~45_sumout $end
$var wire 1 D! Add0~41_sumout $end
$var wire 1 E! Equal0~2_combout $end
$var wire 1 F! Equal0~7_combout $end
$var wire 1 G! count~0_combout $end
$var wire 1 H! Add2~34 $end
$var wire 1 I! Add2~37_sumout $end
$var wire 1 J! Add2~38 $end
$var wire 1 K! Add2~41_sumout $end
$var wire 1 L! Add2~42 $end
$var wire 1 M! Add2~9_sumout $end
$var wire 1 N! Add2~10 $end
$var wire 1 O! Add2~13_sumout $end
$var wire 1 P! Add2~14 $end
$var wire 1 Q! Add2~17_sumout $end
$var wire 1 R! Add2~18 $end
$var wire 1 S! Add2~57_sumout $end
$var wire 1 T! Add2~58 $end
$var wire 1 U! Add2~61_sumout $end
$var wire 1 V! Add2~62 $end
$var wire 1 W! Add2~65_sumout $end
$var wire 1 X! Add2~66 $end
$var wire 1 Y! Add2~45_sumout $end
$var wire 1 Z! Add2~46 $end
$var wire 1 [! Add2~49_sumout $end
$var wire 1 \! Add2~50 $end
$var wire 1 ]! Add2~25_sumout $end
$var wire 1 ^! Add2~26 $end
$var wire 1 _! Add2~29_sumout $end
$var wire 1 `! Add2~30 $end
$var wire 1 a! Add2~53_sumout $end
$var wire 1 b! Add1~53_sumout $end
$var wire 1 c! Add1~57_sumout $end
$var wire 1 d! Equal1~4_combout $end
$var wire 1 e! Add1~61_sumout $end
$var wire 1 f! Add1~69_sumout $end
$var wire 1 g! Add1~65_sumout $end
$var wire 1 h! Equal1~5_combout $end
$var wire 1 i! Equal1~6_combout $end
$var wire 1 j! Equal0~4_combout $end
$var wire 1 k! Equal0~3_combout $end
$var wire 1 l! Equal0~6_combout $end
$var wire 1 m! div_out~0_combout $end
$var wire 1 n! div_out~reg0_q $end
$var wire 1 o! count [16] $end
$var wire 1 p! count [15] $end
$var wire 1 q! count [14] $end
$var wire 1 r! count [13] $end
$var wire 1 s! count [12] $end
$var wire 1 t! count [11] $end
$var wire 1 u! count [10] $end
$var wire 1 v! count [9] $end
$var wire 1 w! count [8] $end
$var wire 1 x! count [7] $end
$var wire 1 y! count [6] $end
$var wire 1 z! count [5] $end
$var wire 1 {! count [4] $end
$var wire 1 |! count [3] $end
$var wire 1 }! count [2] $end
$var wire 1 ~! count [1] $end
$var wire 1 !" count [0] $end
$upscope $end
$upscope $end
$enddefinitions $end
#0
$dumpvars
0!
b11 "
b1010 #
0$
1%
0&
1'
x(
1)
1*
1+
0,
0-
0.
0/
00
01
02
03
04
05
06
07
08
09
0:
0;
1<
0=
1>
0?
0@
1A
1B
1C
1D
1E
1F
1G
1H
1I
1J
1K
1L
1M
1N
1O
0P
0Q
1R
0S
0T
0U
0V
0W
0X
0Y
0Z
0[
0\
0]
0^
0_
0`
0a
0b
1c
1d
1e
1f
1g
1h
1i
1j
1k
1l
1m
1n
1o
1p
1q
1r
1s
1t
0u
0v
0w
0x
0y
0z
0{
0|
0}
0~
1!!
0"!
0#!
0$!
1%!
1&!
0'!
0(!
0)!
1*!
0+!
0,!
0-!
0.!
0/!
00!
01!
02!
13!
14!
05!
06!
17!
08!
09!
0:!
1;!
0<!
0=!
1>!
0?!
0@!
0A!
0B!
0C!
1D!
0E!
0F!
0G!
0H!
0I!
0J!
0K!
0L!
0M!
0N!
0O!
0P!
0Q!
0R!
0S!
0T!
0U!
0V!
0W!
0X!
0Y!
0Z!
0[!
0\!
0]!
0^!
0_!
0`!
0a!
0b!
0c!
1d!
0e!
0f!
0g!
1h!
1i!
1j!
0k!
0l!
0m!
0n!
0!"
0~!
0}!
0|!
0{!
0z!
0y!
0x!
0w!
0v!
0u!
0t!
0s!
0r!
0q!
0p!
0o!
$end
#5000
1!
1-
1.
#10000
0!
0-
0.
#15000
1!
1-
1.
#20000
1$
0!
1S
0-
0.
#25000
1!
1-
1.
1!"
1<!
1H!
0R
1=!
1I!
#30000
0!
0-
0.
#35000
1!
1-
1.
1~!
0!"
1E!
0<!
0H!
1J!
1R
0I!
0J!
0=!
1k!
1F!
1I!
1K!
1l!
0K!
1m!
#40000
0!
0-
0.
#45000
1!
1-
1.
1n!
1!"
0%
0E!
1H!
0R
0m!
1J!
0k!
0F!
0I!
0l!
1K!
1m!
#50000
0!
0-
0.
#55000
1!
1-
1.
1}!
0~!
0!"
0H!
0J!
1L!
1R
1I!
0K!
0L!
0I!
1K!
1M!
0M!
#60000
0!
0-
0.
#65000
1!
1-
1.
1!"
1H!
0R
1I!
#70000
0!
0-
0.
#75000
1!
1-
1.
1~!
0!"
0H!
1J!
1R
0I!
0J!
1L!
1I!
0K!
0L!
1K!
1M!
0M!
#80000
0!
0-
0.
#85000
1!
1-
1.
1!"
1H!
0R
1J!
0I!
1L!
0K!
1M!
#90000
0!
0-
0.
#95000
1!
1-
1.
1|!
0}!
0~!
0!"
0H!
0J!
0L!
1N!
03!
1,!
1R
1I!
1K!
0M!
0N!
1-!
04!
0I!
0K!
1M!
1O!
0O!
#100000
0!
0-
0.
#105000
1!
1-
1.
1!"
1<!
1H!
0R
1=!
1I!
1G!
0m!
#110000
0!
0-
0.
#115000
1!
1-
1.
0n!
0|!
0!"
1%
0<!
0H!
13!
0,!
1R
0M!
1m!
0-!
14!
0=!
0I!
0G!
0m!
#120000
0!
0-
0.
#125000
1!
1-
1.
1!"
1<!
1H!
0R
1=!
1I!
#130000
0!
0-
0.
#135000
1!
1-
1.
1~!
0!"
1E!
0<!
0H!
1J!
1R
0I!
0J!
0=!
1k!
1F!
1I!
1K!
1l!
0K!
1m!
#140000
0!
0-
0.
#145000
1!
1-
1.
1n!
1!"
0%
0E!
1H!
0R
0m!
1J!
0k!
0F!
0I!
0l!
1K!
1m!
#150000
0!
0-
0.
#155000
1!
1-
1.
1}!
0~!
0!"
0H!
0J!
1L!
1R
1I!
0K!
0L!
0I!
1K!
1M!
0M!
#160000
0!
0-
0.
#165000
1!
1-
1.
1!"
1H!
0R
1I!
#170000
0!
0-
0.
#175000
1!
1-
1.
1~!
0!"
0H!
1J!
1R
0I!
0J!
1L!
1I!
0K!
0L!
1K!
1M!
0M!
#180000
0!
0-
0.
#185000
1!
1-
1.
1!"
1H!
0R
1J!
0I!
1L!
0K!
1M!
#190000
0!
0-
0.
#195000
1!
1-
1.
1|!
0}!
0~!
0!"
0H!
0J!
0L!
1N!
03!
1,!
1R
1I!
1K!
0M!
0N!
1-!
04!
0I!
0K!
1M!
1O!
0O!
#200000
0!
0-
0.
#205000
1!
1-
1.
1!"
1<!
1H!
0R
1=!
1I!
1G!
0m!
#210000
0!
0-
0.
#215000
1!
1-
1.
0n!
0|!
0!"
1%
0<!
0H!
13!
0,!
1R
0M!
1m!
0-!
14!
0=!
0I!
0G!
0m!
#220000
0!
0-
0.
#225000
1!
1-
1.
1!"
1<!
1H!
0R
1=!
1I!
#230000
0!
0-
0.
#235000
1!
1-
1.
1~!
0!"
1E!
0<!
0H!
1J!
1R
0I!
0J!
0=!
1k!
1F!
1I!
1K!
1l!
0K!
1m!
#240000
0!
0-
0.
#245000
1!
1-
1.
1n!
1!"
0%
0E!
1H!
0R
0m!
1J!
0k!
0F!
0I!
0l!
1K!
1m!
#250000
0!
0-
0.
#255000
1!
1-
1.
1}!
0~!
0!"
0H!
0J!
1L!
1R
1I!
0K!
0L!
0I!
1K!
1M!
0M!
#260000
0!
0-
0.
#265000
1!
1-
1.
1!"
1H!
0R
1I!
#270000
0!
0-
0.
#275000
1!
1-
1.
1~!
0!"
0H!
1J!
1R
0I!
0J!
1L!
1I!
0K!
0L!
1K!
1M!
0M!
#280000
0!
0-
0.
#285000
1!
1-
1.
1!"
1H!
0R
1J!
0I!
1L!
0K!
1M!
#290000
0!
0-
0.
#295000
1!
1-
1.
1|!
0}!
0~!
0!"
0H!
0J!
0L!
1N!
03!
1,!
1R
1I!
1K!
0M!
0N!
1-!
04!
0I!
0K!
1M!
1O!
0O!
#300000
0!
0-
0.
#305000
1!
1-
1.
1!"
1<!
1H!
0R
1=!
1I!
1G!
0m!
#310000
0!
0-
0.
#315000
1!
1-
1.
0n!
0|!
0!"
1%
0<!
0H!
13!
0,!
1R
0M!
1m!
0-!
14!
0=!
0I!
0G!
0m!
#320000
0!
0-
0.
#325000
1!
1-
1.
1!"
1<!
1H!
0R
1=!
1I!
#330000
0!
0-
0.
#335000
1!
1-
1.
1~!
0!"
1E!
0<!
0H!
1J!
1R
0I!
0J!
0=!
1k!
1F!
1I!
1K!
1l!
0K!
1m!
#340000
0!
0-
0.
#345000
1!
1-
1.
1n!
1!"
0%
0E!
1H!
0R
0m!
1J!
0k!
0F!
0I!
0l!
1K!
1m!
#350000
0!
0-
0.
#355000
1!
1-
1.
1}!
0~!
0!"
0H!
0J!
1L!
1R
1I!
0K!
0L!
0I!
1K!
1M!
0M!
#360000
0!
0-
0.
#365000
1!
1-
1.
1!"
1H!
0R
1I!
#370000
0!
0-
0.
#375000
1!
1-
1.
1~!
0!"
0H!
1J!
1R
0I!
0J!
1L!
1I!
0K!
0L!
1K!
1M!
0M!
#380000
0!
0-
0.
#385000
1!
1-
1.
1!"
1H!
0R
1J!
0I!
1L!
0K!
1M!
#390000
0!
0-
0.
#395000
1!
1-
1.
1|!
0}!
0~!
0!"
0H!
0J!
0L!
1N!
03!
1,!
1R
1I!
1K!
0M!
0N!
1-!
04!
0I!
0K!
1M!
1O!
0O!
#400000
0!
0-
0.
#405000
1!
1-
1.
1!"
1<!
1H!
0R
1=!
1I!
1G!
0m!
#410000
0!
0-
0.
#415000
1!
1-
1.
0n!
0|!
0!"
1%
0<!
0H!
13!
0,!
1R
0M!
1m!
0-!
14!
0=!
0I!
0G!
0m!
#420000
0!
0-
0.
#425000
1!
1-
1.
1!"
1<!
1H!
0R
1=!
1I!
#430000
0!
0-
0.
#435000
1!
1-
1.
1~!
0!"
1E!
0<!
0H!
1J!
1R
0I!
0J!
0=!
1k!
1F!
1I!
1K!
1l!
0K!
1m!
#440000
0!
0-
0.
#445000
1!
1-
1.
1n!
1!"
0%
0E!
1H!
0R
0m!
1J!
0k!
0F!
0I!
0l!
1K!
1m!
#450000
0!
0-
0.
#455000
1!
1-
1.
1}!
0~!
0!"
0H!
0J!
1L!
1R
1I!
0K!
0L!
0I!
1K!
1M!
0M!
#460000
0!
0-
0.
#465000
1!
1-
1.
1!"
1H!
0R
1I!
#470000
0!
0-
0.
#475000
1!
1-
1.
1~!
0!"
0H!
1J!
1R
0I!
0J!
1L!
1I!
0K!
0L!
1K!
1M!
0M!
#480000
0!
0-
0.
#485000
1!
1-
1.
1!"
1H!
0R
1J!
0I!
1L!
0K!
1M!
#490000
0!
0-
0.
#495000
1!
1-
1.
1|!
0}!
0~!
0!"
0H!
0J!
0L!
1N!
03!
1,!
1R
1I!
1K!
0M!
0N!
1-!
04!
0I!
0K!
1M!
1O!
0O!
#500000
0!
0-
0.
#505000
1!
1-
1.
1!"
1<!
1H!
0R
1=!
1I!
1G!
0m!
#510000
0!
0-
0.
#515000
1!
1-
1.
0n!
0|!
0!"
1%
0<!
0H!
13!
0,!
1R
0M!
1m!
0-!
14!
0=!
0I!
0G!
0m!
#520000
0!
0-
0.
#525000
1!
1-
1.
1!"
1<!
1H!
0R
1=!
1I!
#530000
0!
0-
0.
#535000
1!
1-
1.
1~!
0!"
1E!
0<!
0H!
1J!
1R
0I!
0J!
0=!
1k!
1F!
1I!
1K!
1l!
0K!
1m!
#540000
0!
0-
0.
#545000
1!
1-
1.
1n!
1!"
0%
0E!
1H!
0R
0m!
1J!
0k!
0F!
0I!
0l!
1K!
1m!
#550000
0!
0-
0.
#555000
1!
1-
1.
1}!
0~!
0!"
0H!
0J!
1L!
1R
1I!
0K!
0L!
0I!
1K!
1M!
0M!
#560000
0!
0-
0.
#565000
1!
1-
1.
1!"
1H!
0R
1I!
#570000
0!
0-
0.
#575000
1!
1-
1.
1~!
0!"
0H!
1J!
1R
0I!
0J!
1L!
1I!
0K!
0L!
1K!
1M!
0M!
#580000
0!
0-
0.
#585000
1!
1-
1.
1!"
1H!
0R
1J!
0I!
1L!
0K!
1M!
#590000
0!
0-
0.
#595000
1!
1-
1.
1|!
0}!
0~!
0!"
0H!
0J!
0L!
1N!
03!
1,!
1R
1I!
1K!
0M!
0N!
1-!
04!
0I!
0K!
1M!
1O!
0O!
#600000
0!
0-
0.
#605000
1!
1-
1.
1!"
1<!
1H!
0R
1=!
1I!
1G!
0m!
#610000
0!
0-
0.
#615000
1!
1-
1.
0n!
0|!
0!"
1%
0<!
0H!
13!
0,!
1R
0M!
1m!
0-!
14!
0=!
0I!
0G!
0m!
#620000
0!
0-
0.
#625000
1!
1-
1.
1!"
1<!
1H!
0R
1=!
1I!
#630000
0!
0-
0.
#635000
1!
1-
1.
1~!
0!"
1E!
0<!
0H!
1J!
1R
0I!
0J!
0=!
1k!
1F!
1I!
1K!
1l!
0K!
1m!
#640000
0!
0-
0.
#645000
1!
1-
1.
1n!
1!"
0%
0E!
1H!
0R
0m!
1J!
0k!
0F!
0I!
0l!
1K!
1m!
#650000
0!
0-
0.
#655000
1!
1-
1.
1}!
0~!
0!"
0H!
0J!
1L!
1R
1I!
0K!
0L!
0I!
1K!
1M!
0M!
#660000
0!
0-
0.
#665000
1!
1-
1.
1!"
1H!
0R
1I!
#670000
0!
0-
0.
#675000
1!
1-
1.
1~!
0!"
0H!
1J!
1R
0I!
0J!
1L!
1I!
0K!
0L!
1K!
1M!
0M!
#680000
0!
0-
0.
#685000
1!
1-
1.
1!"
1H!
0R
1J!
0I!
1L!
0K!
1M!
#690000
0!
0-
0.
#695000
1!
1-
1.
1|!
0}!
0~!
0!"
0H!
0J!
0L!
1N!
03!
1,!
1R
1I!
1K!
0M!
0N!
1-!
04!
0I!
0K!
1M!
1O!
0O!
#700000
0!
0-
0.
#705000
1!
1-
1.
1!"
1<!
1H!
0R
1=!
1I!
1G!
0m!
#710000
0!
0-
0.
#715000
1!
1-
1.
0n!
0|!
0!"
1%
0<!
0H!
13!
0,!
1R
0M!
1m!
0-!
14!
0=!
0I!
0G!
0m!
#720000
0!
0-
0.
#725000
1!
1-
1.
1!"
1<!
1H!
0R
1=!
1I!
#730000
0!
0-
0.
#735000
1!
1-
1.
1~!
0!"
1E!
0<!
0H!
1J!
1R
0I!
0J!
0=!
1k!
1F!
1I!
1K!
1l!
0K!
1m!
#740000
0!
0-
0.
#745000
1!
1-
1.
1n!
1!"
0%
0E!
1H!
0R
0m!
1J!
0k!
0F!
0I!
0l!
1K!
1m!
#750000
0!
0-
0.
#755000
1!
1-
1.
1}!
0~!
0!"
0H!
0J!
1L!
1R
1I!
0K!
0L!
0I!
1K!
1M!
0M!
#760000
0!
0-
0.
#765000
1!
1-
1.
1!"
1H!
0R
1I!
#770000
0!
0-
0.
#775000
1!
1-
1.
1~!
0!"
0H!
1J!
1R
0I!
0J!
1L!
1I!
0K!
0L!
1K!
1M!
0M!
#780000
0!
0-
0.
#785000
1!
1-
1.
1!"
1H!
0R
1J!
0I!
1L!
0K!
1M!
#790000
0!
0-
0.
#795000
1!
1-
1.
1|!
0}!
0~!
0!"
0H!
0J!
0L!
1N!
03!
1,!
1R
1I!
1K!
0M!
0N!
1-!
04!
0I!
0K!
1M!
1O!
0O!
#800000
0!
0-
0.
#805000
1!
1-
1.
1!"
1<!
1H!
0R
1=!
1I!
1G!
0m!
#810000
0!
0-
0.
#815000
1!
1-
1.
0n!
0|!
0!"
1%
0<!
0H!
13!
0,!
1R
0M!
1m!
0-!
14!
0=!
0I!
0G!
0m!
#820000
0!
0-
0.
#825000
1!
1-
1.
1!"
1<!
1H!
0R
1=!
1I!
#830000
0!
0-
0.
#835000
1!
1-
1.
1~!
0!"
1E!
0<!
0H!
1J!
1R
0I!
0J!
0=!
1k!
1F!
1I!
1K!
1l!
0K!
1m!
#840000
0!
0-
0.
#845000
1!
1-
1.
1n!
1!"
0%
0E!
1H!
0R
0m!
1J!
0k!
0F!
0I!
0l!
1K!
1m!
#850000
0!
0-
0.
#855000
1!
1-
1.
1}!
0~!
0!"
0H!
0J!
1L!
1R
1I!
0K!
0L!
0I!
1K!
1M!
0M!
#860000
0!
0-
0.
#865000
1!
1-
1.
1!"
1H!
0R
1I!
#870000
0!
0-
0.
#875000
1!
1-
1.
1~!
0!"
0H!
1J!
1R
0I!
0J!
1L!
1I!
0K!
0L!
1K!
1M!
0M!
#880000
0!
0-
0.
#885000
1!
1-
1.
1!"
1H!
0R
1J!
0I!
1L!
0K!
1M!
#890000
0!
0-
0.
#895000
1!
1-
1.
1|!
0}!
0~!
0!"
0H!
0J!
0L!
1N!
03!
1,!
1R
1I!
1K!
0M!
0N!
1-!
04!
0I!
0K!
1M!
1O!
0O!
#900000
0!
0-
0.
#905000
1!
1-
1.
1!"
1<!
1H!
0R
1=!
1I!
1G!
0m!
#910000
0!
0-
0.
#915000
1!
1-
1.
0n!
0|!
0!"
1%
0<!
0H!
13!
0,!
1R
0M!
1m!
0-!
14!
0=!
0I!
0G!
0m!
#920000
0!
0-
0.
#925000
1!
1-
1.
1!"
1<!
1H!
0R
1=!
1I!
#930000
0!
0-
0.
#935000
1!
1-
1.
1~!
0!"
1E!
0<!
0H!
1J!
1R
0I!
0J!
0=!
1k!
1F!
1I!
1K!
1l!
0K!
1m!
#940000
0!
0-
0.
#945000
1!
1-
1.
1n!
1!"
0%
0E!
1H!
0R
0m!
1J!
0k!
0F!
0I!
0l!
1K!
1m!
#950000
0!
0-
0.
#955000
1!
1-
1.
1}!
0~!
0!"
0H!
0J!
1L!
1R
1I!
0K!
0L!
0I!
1K!
1M!
0M!
#960000
0!
0-
0.
#965000
1!
1-
1.
1!"
1H!
0R
1I!
#970000
0!
0-
0.
#975000
1!
1-
1.
1~!
0!"
0H!
1J!
1R
0I!
0J!
1L!
1I!
0K!
0L!
1K!
1M!
0M!
#980000
0!
0-
0.
#985000
1!
1-
1.
1!"
1H!
0R
1J!
0I!
1L!
0K!
1M!
#990000
0!
0-
0.
#995000
1!
1-
1.
1|!
0}!
0~!
0!"
0H!
0J!
0L!
1N!
03!
1,!
1R
1I!
1K!
0M!
0N!
1-!
04!
0I!
0K!
1M!
1O!
0O!
