homework/ex7/simulation/qsim/shifter_s1p16.msim.vcd
$comment
	File created using the following command:
		vcd file shifter_s1p16.msim.vcd -direction
$end
$date
	Thu Dec 05 18:31:14 2019
$end
$version
	ModelSim Version 10.5b
$end
$timescale
	1ps
$end

$scope module shifter_s1p16_vlg_vec_tst $end
$var reg 1 ! clk $end
$var reg 1 " reset_n $end
$var reg 1 # serial_in $end
$var wire 1 $ parallel_out [15] $end
$var wire 1 % parallel_out [14] $end
$var wire 1 & parallel_out [13] $end
$var wire 1 ' parallel_out [12] $end
$var wire 1 ( parallel_out [11] $end
$var wire 1 ) parallel_out [10] $end
$var wire 1 * parallel_out [9] $end
$var wire 1 + parallel_out [8] $end
$var wire 1 , parallel_out [7] $end
$var wire 1 - parallel_out [6] $end
$var wire 1 . parallel_out [5] $end
$var wire 1 / parallel_out [4] $end
$var wire 1 0 parallel_out [3] $end
$var wire 1 1 parallel_out [2] $end
$var wire 1 2 parallel_out [1] $end
$var wire 1 3 parallel_out [0] $end

$scope module i1 $end
$var wire 1 4 gnd $end
$var wire 1 5 vcc $end
$var wire 1 6 unknown $end
$var tri1 1 7 devclrn $end
$var tri1 1 8 devpor $end
$var tri1 1 9 devoe $end
$var wire 1 : parallel_out[0]~output_o $end
$var wire 1 ; parallel_out[1]~output_o $end
$var wire 1 < parallel_out[2]~output_o $end
$var wire 1 = parallel_out[3]~output_o $end
$var wire 1 > parallel_out[4]~output_o $end
$var wire 1 ? parallel_out[5]~output_o $end
$var wire 1 @ parallel_out[6]~output_o $end
$var wire 1 A parallel_out[7]~output_o $end
$var wire 1 B parallel_out[8]~output_o $end
$var wire 1 C parallel_out[9]~output_o $end
$var wire 1 D parallel_out[10]~output_o $end
$var wire 1 E parallel_out[11]~output_o $end
$var wire 1 F parallel_out[12]~output_o $end
$var wire 1 G parallel_out[13]~output_o $end
$var wire 1 H parallel_out[14]~output_o $end
$var wire 1 I parallel_out[15]~output_o $end
$var wire 1 J clk~input_o $end
$var wire 1 K clk~inputclkctrl_outclk $end
$var wire 1 L serial_in~input_o $end
$var wire 1 M parallel_out[15]~reg0feeder_combout $end
$var wire 1 N reset_n~input_o $end
$var wire 1 O reset_n~inputclkctrl_outclk $end
$var wire 1 P parallel_out[15]~reg0_q $end
$var wire 1 Q parallel_out[14]~reg0feeder_combout $end
$var wire 1 R parallel_out[14]~reg0_q $end
$var wire 1 S parallel_out[13]~reg0feeder_combout $end
$var wire 1 T parallel_out[13]~reg0_q $end
$var wire 1 U parallel_out[12]~reg0feeder_combout $end
$var wire 1 V parallel_out[12]~reg0_q $end
$var wire 1 W parallel_out[11]~reg0feeder_combout $end
$var wire 1 X parallel_out[11]~reg0_q $end
$var wire 1 Y parallel_out[10]~reg0feeder_combout $end
$var wire 1 Z parallel_out[10]~reg0_q $end
$var wire 1 [ parallel_out[9]~reg0feeder_combout $end
$var wire 1 \ parallel_out[9]~reg0_q $end
$var wire 1 ] parallel_out[8]~reg0feeder_combout $end
$var wire 1 ^ parallel_out[8]~reg0_q $end
$var wire 1 _ parallel_out[7]~reg0feeder_combout $end
$var wire 1 ` parallel_out[7]~reg0_q $end
$var wire 1 a parallel_out[6]~reg0feeder_combout $end
$var wire 1 b parallel_out[6]~reg0_q $end
$var wire 1 c parallel_out[5]~reg0feeder_combout $end
$var wire 1 d parallel_out[5]~reg0_q $end
$var wire 1 e parallel_out[4]~reg0feeder_combout $end
$var wire 1 f parallel_out[4]~reg0_q $end
$var wire 1 g parallel_out[3]~reg0feeder_combout $end
$var wire 1 h parallel_out[3]~reg0_q $end
$var wire 1 i parallel_out[2]~reg0feeder_combout $end
$var wire 1 j parallel_out[2]~reg0_q $end
$var wire 1 k parallel_out[1]~reg0feeder_combout $end
$var wire 1 l parallel_out[1]~reg0_q $end
$var wire 1 m parallel_out[0]~reg0feeder_combout $end
$var wire 1 n parallel_out[0]~reg0_q $end
$upscope $end
$upscope $end
$enddefinitions $end
#0
$dumpvars
0!
0"
1#
03
02
01
00
0/
0.
0-
0,
0+
0*
0)
0(
0'
0&
0%
0$
04
15
x6
17
18
19
0:
0;
0<
0=
0>
0?
0@
0A
0B
0C
0D
0E
0F
0G
0H
0I
0J
0K
1L
1M
0N
0O
0P
0Q
0R
0S
0T
0U
0V
0W
0X
0Y
0Z
0[
0\
0]
0^
0_
0`
0a
0b
0c
0d
0e
0f
0g
0h
0i
0j
0k
0l
0m
0n
$end
#10000
1!
0#
1J
0L
1K
0M
#20000
1"
0!
1N
0J
1O
0K
#30000
1!
1J
1K
#40000
1#
0!
1L
0J
0K
1M
#50000
1!
1J
1K
1P
1I
1$
1Q
#60000
0#
0!
0L
0J
0K
0M
#70000
1!
1J
1K
1R
0P
0I
1H
1%
0$
1S
0Q
#80000
1#
0!
1L
0J
0K
1M
#90000
1!
1J
1K
1T
0R
1P
1I
0H
1G
1&
0%
1$
1U
0S
1Q
#100000
0!
0J
0K
#110000
1!
1J
1K
1V
0T
1R
1H
0G
1F
1'
0&
1%
1W
0U
1S
#120000
0!
0J
0K
#130000
0#
1!
0L
1J
1K
0M
1X
0V
1T
1G
0F
1E
1(
0'
1&
1Y
0W
1U
#140000
0!
0J
0K
#150000
1#
1!
1L
1J
1K
1M
1Z
0X
1V
0P
0I
1F
0E
1D
1)
0(
1'
0$
1[
0Y
1W
0Q
#160000
0!
0J
0K
#170000
1!
1J
1K
1\
0Z
1X
0R
1P
1I
0H
1E
0D
1C
1*
0)
1(
0%
1$
1]
0[
1Y
0S
1Q
#180000
0#
0!
0L
0J
0K
0M
#190000
1#
1!
1L
1J
1K
1M
1^
0\
1Z
0T
1R
0P
0I
1H
0G
1D
0C
1B
1+
0*
1)
0&
1%
0$
1_
0]
1[
0U
1S
0Q
#200000
0!
0J
0K
#210000
0#
1!
0L
1J
1K
0M
1`
0^
1\
0V
1T
0R
1P
1I
0H
1G
0F
1C
0B
1A
1,
0+
1*
0'
1&
0%
1$
1a
0_
1]
0W
1U
0S
1Q
#220000
1#
0!
1L
0J
0K
1M
#230000
1!
1J
1K
1b
0`
1^
0X
1V
0T
1R
1H
0G
1F
0E
1B
0A
1@
1-
0,
1+
0(
1'
0&
1%
1c
0a
1_
0Y
1W
0U
1S
#240000
0!
0J
0K
#250000
1!
1J
1K
1d
0b
1`
0Z
1X
0V
1T
1G
0F
1E
0D
1A
0@
1?
1.
0-
1,
0)
1(
0'
1&
1e
0c
1a
0[
1Y
0W
1U
#260000
0#
0!
0L
0J
0K
0M
#270000
1!
1J
1K
1f
0d
1b
0\
1Z
0X
1V
0P
0I
1F
0E
1D
0C
1@
0?
1>
1/
0.
1-
0*
1)
0(
1'
0$
1g
0e
1c
0]
1[
0Y
1W
0Q
#280000
1#
0!
1L
0J
0K
1M
#290000
1!
1J
1K
1h
0f
1d
0^
1\
0Z
1X
0R
1P
1I
0H
1E
0D
1C
0B
1?
0>
1=
10
0/
1.
0+
1*
0)
1(
0%
1$
1i
0g
1e
0_
1]
0[
1Y
0S
1Q
#300000
0#
0!
0L
0J
0K
0M
#310000
1#
1!
1L
1J
1K
1M
1j
0h
1f
0`
1^
0\
1Z
0T
1R
0P
0I
1H
0G
1D
0C
1B
0A
1>
0=
1<
11
00
1/
0,
1+
0*
1)
0&
1%
0$
1k
0i
1g
0a
1_
0]
1[
0U
1S
0Q
#320000
0!
0J
0K
#330000
1!
1J
1K
1l
0j
1h
0b
1`
0^
1\
0V
1T
0R
1P
1I
0H
1G
0F
1C
0B
1A
0@
1=
0<
1;
12
01
10
0-
1,
0+
1*
0'
1&
0%
1$
1m
0k
1i
0c
1a
0_
1]
0W
1U
0S
1Q
#340000
0!
0J
0K
#350000
0#
1!
0L
1J
1K
0M
1n
0l
1j
0d
1b
0`
1^
0X
1V
0T
1R
1H
0G
1F
0E
1B
0A
1@
0?
1<
0;
1:
13
02
11
0.
1-
0,
1+
0(
1'
0&
1%
0m
1k
0e
1c
0a
1_
0Y
1W
0U
1S
#360000
0!
0J
0K
#370000
1!
1J
1K
0n
1l
0f
1d
0b
1`
0Z
1X
0V
1T
0P
0I
1G
0F
1E
0D
1A
0@
1?
0>
1;
0:
03
12
0/
1.
0-
1,
0)
1(
0'
1&
0$
1m
0g
1e
0c
1a
0[
1Y
0W
1U
0Q
#380000
0!
0J
0K
#390000
1!
1J
1K
1n
0h
1f
0d
1b
0\
1Z
0X
1V
0R
0H
1F
0E
1D
0C
1@
0?
1>
0=
1:
13
00
1/
0.
1-
0*
1)
0(
1'
0%
0i
1g
0e
1c
0]
1[
0Y
1W
0S
#400000
1#
0!
1L
0J
0K
1M
#410000
0#
1!
0L
1J
1K
0M
0j
1h
0f
1d
0^
1\
0Z
1X
0T
1P
1I
0G
1E
0D
1C
0B
1?
0>
1=
0<
01
10
0/
1.
0+
1*
0)
1(
0&
1$
0k
1i
0g
1e
0_
1]
0[
1Y
0U
1Q
#420000
1#
0!
1L
0J
0K
1M
#430000
0#
1!
0L
1J
1K
0M
0l
1j
0h
1f
0`
1^
0\
1Z
0V
1R
1H
0F
1D
0C
1B
0A
1>
0=
1<
0;
02
11
00
1/
0,
1+
0*
1)
0'
1%
0m
1k
0i
1g
0a
1_
0]
1[
0W
1S
#440000
1#
0!
1L
0J
0K
1M
#450000
1!
1J
1K
0n
1l
0j
1h
0b
1`
0^
1\
0X
1T
1G
0E
1C
0B
1A
0@
1=
0<
1;
0:
03
12
01
10
0-
1,
0+
1*
0(
1&
1m
0k
1i
0c
1a
0_
1]
0Y
1U
#460000
0!
0J
0K
#470000
1!
1J
1K
1n
0l
1j
0d
1b
0`
1^
0Z
1V
1F
0D
1B
0A
1@
0?
1<
0;
1:
13
02
11
0.
1-
0,
1+
0)
1'
0m
1k
0e
1c
0a
1_
0[
1W
#480000
0!
0J
0K
#490000
1!
1J
1K
0n
1l
0f
1d
0b
1`
0\
1X
1E
0C
1A
0@
1?
0>
1;
0:
03
12
0/
1.
0-
1,
0*
1(
1m
0g
1e
0c
1a
0]
1Y
#500000
0#
0!
0L
0J
0K
0M
#510000
1!
1J
1K
1n
0h
1f
0d
1b
0^
1Z
0P
0I
1D
0B
1@
0?
1>
0=
1:
13
00
1/
0.
1-
0+
1)
0$
0i
1g
0e
1c
0_
1[
0Q
#520000
0!
0J
0K
#530000
1#
1!
1L
1J
1K
1M
0j
1h
0f
1d
0`
1\
0R
0H
1C
0A
1?
0>
1=
0<
01
10
0/
1.
0,
1*
0%
0k
1i
0g
1e
0a
1]
0S
#540000
0#
0!
0L
0J
0K
0M
#550000
1!
1J
1K
0l
1j
0h
1f
0b
1^
0T
0G
1B
0@
1>
0=
1<
0;
02
11
00
1/
0-
1+
0&
0m
1k
0i
1g
0c
1_
0U
#560000
1#
0!
1L
0J
0K
1M
#570000
1!
1J
1K
0n
1l
0j
1h
0d
1`
0V
1P
1I
0F
1A
0?
1=
0<
1;
0:
03
12
01
10
0.
1,
0'
1$
1m
0k
1i
0e
1a
0W
1Q
#580000
0#
0!
0L
0J
0K
0M
#590000
1!
1J
1K
1n
0l
1j
0f
1b
0X
1R
0P
0I
1H
0E
1@
0>
1<
0;
1:
13
02
11
0/
1-
0(
1%
0$
0m
1k
0g
1c
0Y
1S
0Q
#600000
1#
0!
1L
0J
0K
1M
#610000
1!
1J
1K
0n
1l
0h
1d
0Z
1T
0R
1P
1I
0H
1G
0D
1?
0=
1;
0:
03
12
00
1.
0)
1&
0%
1$
1m
0i
1e
0[
1U
0S
1Q
#620000
0!
0J
0K
#630000
1!
1J
1K
1n
0j
1f
0\
1V
0T
1R
1H
0G
1F
0C
1>
0<
1:
13
01
1/
0*
1'
0&
1%
0k
1g
0]
1W
0U
1S
#640000
0!
0J
0K
#650000
0#
1!
0L
1J
1K
0M
0l
1h
0^
1X
0V
1T
1G
0F
1E
0B
1=
0;
02
10
0+
1(
0'
1&
0m
1i
0_
1Y
0W
1U
#660000
1#
0!
1L
0J
0K
1M
#670000
1!
1J
1K
0n
1j
0`
1Z
0X
1V
1F
0E
1D
0A
1<
0:
03
11
0,
1)
0(
1'
1k
0a
1[
0Y
1W
#680000
0#
0!
0L
0J
0K
0M
#690000
1#
1!
1L
1J
1K
1M
1l
0b
1\
0Z
1X
0P
0I
1E
0D
1C
0@
1;
12
0-
1*
0)
1(
0$
1m
0c
1]
0[
1Y
0Q
#700000
0!
0J
0K
#710000
0#
1!
0L
1J
1K
0M
1n
0d
1^
0\
1Z
0R
1P
1I
0H
1D
0C
1B
0?
1:
13
0.
1+
0*
1)
0%
1$
0e
1_
0]
1[
0S
1Q
#720000
0!
0J
0K
#730000
1#
1!
1L
1J
1K
1M
0f
1`
0^
1\
0T
1R
0P
0I
1H
0G
1C
0B
1A
0>
0/
1,
0+
1*
0&
1%
0$
0g
1a
0_
1]
0U
1S
0Q
#740000
0!
0J
0K
#750000
0#
1!
0L
1J
1K
0M
0h
1b
0`
1^
0V
1T
0R
1P
1I
0H
1G
0F
1B
0A
1@
0=
00
1-
0,
1+
0'
1&
0%
1$
0i
1c
0a
1_
0W
1U
0S
1Q
#760000
0!
0J
0K
#770000
1!
1J
1K
0j
1d
0b
1`
0X
1V
0T
1R
0P
0I
1H
0G
1F
0E
1A
0@
1?
0<
01
1.
0-
1,
0(
1'
0&
1%
0$
0k
1e
0c
1a
0Y
1W
0U
1S
0Q
#780000
1#
0!
1L
0J
0K
1M
#790000
1!
1J
1K
0l
1f
0d
1b
0Z
1X
0V
1T
0R
1P
1I
0H
1G
0F
1E
0D
1@
0?
1>
0;
02
1/
0.
1-
0)
1(
0'
1&
0%
1$
0m
1g
0e
1c
0[
1Y
0W
1U
0S
1Q
#800000
0!
0J
0K
#810000
1!
1J
1K
0n
1h
0f
1d
0\
1Z
0X
1V
0T
1R
1H
0G
1F
0E
1D
0C
1?
0>
1=
0:
03
10
0/
1.
0*
1)
0(
1'
0&
1%
1i
0g
1e
0]
1[
0Y
1W
0U
1S
#820000
0!
0J
0K
#830000
1!
1J
1K
1j
0h
1f
0^
1\
0Z
1X
0V
1T
1G
0F
1E
0D
1C
0B
1>
0=
1<
11
00
1/
0+
1*
0)
1(
0'
1&
1k
0i
1g
0_
1]
0[
1Y
0W
1U
#840000
0#
0!
0L
0J
0K
0M
#850000
1!
1J
1K
1l
0j
1h
0`
1^
0\
1Z
0X
1V
0P
0I
1F
0E
1D
0C
1B
0A
1=
0<
1;
12
01
10
0,
1+
0*
1)
0(
1'
0$
1m
0k
1i
0a
1_
0]
1[
0Y
1W
0Q
#860000
1#
0!
1L
0J
0K
1M
#870000
0#
1!
0L
1J
1K
0M
1n
0l
1j
0b
1`
0^
1\
0Z
1X
0R
1P
1I
0H
1E
0D
1C
0B
1A
0@
1<
0;
1:
13
02
11
0-
1,
0+
1*
0)
1(
0%
1$
0m
1k
0c
1a
0_
1]
0[
1Y
0S
1Q
#880000
1#
0!
1L
0J
0K
1M
#890000
0#
1!
0L
1J
1K
0M
0n
1l
0d
1b
0`
1^
0\
1Z
0T
1R
1H
0G
1D
0C
1B
0A
1@
0?
1;
0:
03
12
0.
1-
0,
1+
0*
1)
0&
1%
1m
0e
1c
0a
1_
0]
1[
0U
1S
#900000
1#
0!
1L
0J
0K
1M
#910000
0#
1!
0L
1J
1K
0M
1n
0f
1d
0b
1`
0^
1\
0V
1T
1G
0F
1C
0B
1A
0@
1?
0>
1:
13
0/
1.
0-
1,
0+
1*
0'
1&
0g
1e
0c
1a
0_
1]
0W
1U
#920000
0!
0J
0K
#930000
1#
1!
1L
1J
1K
1M
0h
1f
0d
1b
0`
1^
0X
1V
0P
0I
1F
0E
1B
0A
1@
0?
1>
0=
00
1/
0.
1-
0,
1+
0(
1'
0$
0i
1g
0e
1c
0a
1_
0Y
1W
0Q
#940000
0#
0!
0L
0J
0K
0M
#950000
1#
1!
1L
1J
1K
1M
0j
1h
0f
1d
0b
1`
0Z
1X
0R
0H
1E
0D
1A
0@
1?
0>
1=
0<
01
10
0/
1.
0-
1,
0)
1(
0%
0k
1i
0g
1e
0c
1a
0[
1Y
0S
#960000
0#
0!
0L
0J
0K
0M
#970000
1!
1J
1K
0l
1j
0h
1f
0d
1b
0\
1Z
0T
0G
1D
0C
1@
0?
1>
0=
1<
0;
02
11
00
1/
0.
1-
0*
1)
0&
0m
1k
0i
1g
0e
1c
0]
1[
0U
#980000
1#
0!
1L
0J
0K
1M
#990000
1!
1J
1K
0n
1l
0j
1h
0f
1d
0^
1\
0V
1P
1I
0F
1C
0B
1?
0>
1=
0<
1;
0:
03
12
01
10
0/
1.
0+
1*
0'
1$
1m
0k
1i
0g
1e
0_
1]
0W
1Q
