homework/ex4/simulation/qsim/sequ_detect.msim.vcd
$comment
	File created using the following command:
		vcd file sequ_detect.msim.vcd -direction
$end
$date
	Thu Nov 21 17:31:59 2019
$end
$version
	ModelSim Version 10.5b
$end
$timescale
	1ps
$end

$scope module sequ_detect_vlg_vec_tst $end
$var reg 1 ! clk $end
$var reg 1 " data_in $end
$var reg 1 # reset_n $end
$var wire 1 $ check_flag $end

$scope module i1 $end
$var wire 1 % gnd $end
$var wire 1 & vcc $end
$var wire 1 ' unknown $end
$var tri1 1 ( devclrn $end
$var tri1 1 ) devpor $end
$var tri1 1 * devoe $end
$var wire 1 + check_flag~output_o $end
$var wire 1 , clk~input_o $end
$var wire 1 - clk~inputclkctrl_outclk $end
$var wire 1 . reset_n~input_o $end
$var wire 1 / data_in~input_o $end
$var wire 1 0 ST~28_combout $end
$var wire 1 1 ST~31_combout $end
$var wire 1 2 ST~30_combout $end
$var wire 1 3 ST~32_combout $end
$var wire 1 4 ST.s0~q $end
$var wire 1 5 ST~29_combout $end
$var wire 1 6 ST.s1~q $end
$var wire 1 7 ST~27_combout $end
$var wire 1 8 ST.s2~q $end
$var wire 1 9 ST~26_combout $end
$var wire 1 : ST.s3~q $end
$var wire 1 ; ST~25_combout $end
$var wire 1 < ST.s4~q $end
$var wire 1 = ST~24_combout $end
$var wire 1 > ST.s5~q $end
$var wire 1 ? ST~23_combout $end
$var wire 1 @ ST.s6~q $end
$var wire 1 A ST~22_combout $end
$var wire 1 B ST.s7~q $end
$var wire 1 C ST~21_combout $end
$var wire 1 D ST.s8~q $end
$var wire 1 E check_flag~0_combout $end
$var wire 1 F check_flag~reg0_q $end
$upscope $end
$upscope $end
$enddefinitions $end
#0
$dumpvars
0!
1"
1#
0$
0%
1&
x'
1(
1)
1*
0+
0,
0-
1.
1/
10
11
02
13
04
15
06
07
08
09
0:
0;
0<
0=
0>
0?
0@
0A
0B
0C
0D
0E
0F
$end
#5000
0"
0/
00
03
05
#10000
1!
1,
1-
#15000
1"
1/
10
13
15
#20000
0!
0"
0,
0/
0-
00
03
05
#30000
1!
1,
1-
#40000
0!
0,
0-
#50000
1!
1,
1-
#60000
0!
0,
0-
#70000
1!
1,
1-
#75000
1"
1/
10
13
15
#80000
0#
0!
0.
0,
0-
01
00
03
05
#85000
0"
0/
#90000
1!
1,
1-
#95000
1"
1/
#100000
1#
0!
0"
1.
0,
0/
0-
11
#105000
1"
1/
10
13
15
#110000
1!
1,
1-
16
14
17
05
#115000
0"
0/
00
07
03
#120000
0!
0,
0-
#125000
1"
1/
10
17
13
#130000
1!
0"
1,
0/
1-
00
07
03
18
06
#135000
1"
1/
10
19
13
#140000
0!
0"
0,
0/
0-
00
09
03
#145000
1"
1/
10
19
13
#150000
1!
0"
1,
0/
1-
00
09
03
1:
08
12
1;
13
#155000
1"
1/
10
0;
17
#160000
0!
0,
0-
#165000
0"
0/
00
1;
07
#170000
1!
1,
1-
1<
0:
02
0;
03
#180000
0!
0,
0-
#190000
1!
1,
1-
0<
04
#200000
1"
0!
1/
0,
0-
10
13
15
#210000
1!
1,
1-
16
14
17
05
#220000
0!
0,
0-
#230000
1!
1,
1-
18
06
19
07
#240000
0!
0,
0-
#250000
1!
1,
1-
1:
08
12
17
09
#260000
0"
0!
0/
0,
0-
00
1;
07
#270000
1!
1,
1-
1<
0:
02
0;
03
#280000
1"
0!
1/
0,
0-
10
1=
13
#290000
1!
1,
1-
1>
0<
12
15
0=
#300000
0"
0!
0/
0,
0-
00
1?
05
#310000
1!
1,
1-
1@
0>
1A
0?
#320000
0!
0,
0-
#330000
1!
1,
1-
1B
0@
1C
0A
#340000
0!
0,
0-
#350000
1!
1,
1-
1D
0B
1E
03
0C
#360000
0!
0,
0-
#370000
1!
1,
1-
0D
04
1F
1+
02
1$
0E
13
03
#380000
0!
0,
0-
#390000
1!
1,
1-
0F
0+
0$
#400000
0!
0,
0-
#410000
1!
1,
1-
#420000
0!
0,
0-
#430000
1!
1,
1-
#440000
0!
0,
0-
#450000
1!
1,
1-
#460000
0!
0,
0-
#470000
1!
1,
1-
#480000
0!
0,
0-
#490000
1!
1,
1-
#500000
0!
0,
0-
#510000
1!
1,
1-
#520000
0!
0,
0-
#530000
1!
1,
1-
#540000
0!
0,
0-
#550000
1!
1,
1-
#560000
0!
0,
0-
#570000
1!
1,
1-
#580000
0!
0,
0-
#590000
1!
1,
1-
#600000
0!
0,
0-
#610000
1!
1,
1-
#620000
0!
0,
0-
#630000
1!
1,
1-
#640000
0!
0,
0-
#650000
1!
1,
1-
#660000
0!
0,
0-
#670000
1!
1,
1-
#680000
0!
0,
0-
#690000
1!
1,
1-
#700000
0!
0,
0-
#710000
1!
1,
1-
#720000
0!
0,
0-
#730000
1!
1,
1-
#740000
0!
0,
0-
#750000
1!
1,
1-
#760000
0!
0,
0-
#770000
1!
1,
1-
#780000
0!
0,
0-
#790000
1!
1,
1-
#800000
0!
0,
0-
#810000
1!
1,
1-
#820000
0!
0,
0-
#830000
1!
1,
1-
#840000
0!
0,
0-
#850000
1!
1,
1-
#860000
0!
0,
0-
#870000
1!
1,
1-
#880000
0!
0,
0-
#890000
1!
1,
1-
#900000
0!
0,
0-
#910000
1!
1,
1-
#920000
0!
0,
0-
#930000
1!
1,
1-
#940000
0!
0,
0-
#950000
1!
1,
1-
#960000
0!
0,
0-
#970000
1!
1,
1-
#980000
0!
0,
0-
#990000
1!
1,
1-
